%YAML 1.1
%TAG !u! tag:unity3d.com,2011:
--- !u!74 &7400000
AnimationClip:
  m_ObjectHideFlags: 0
  m_CorrespondingSourceObject: {fileID: 0}
  m_PrefabInstance: {fileID: 0}
  m_PrefabAsset: {fileID: 0}
  m_Name: Jump
  serializedVersion: 6
  m_Legacy: 0
  m_Compressed: 0
  m_UseHighQualityCurve: 1
  m_RotationCurves: []
  m_CompressedRotationCurves: []
  m_EulerCurves: []
  m_PositionCurves: []
  m_ScaleCurves: []
  m_FloatCurves: []
  m_PPtrCurves:
  - curve:
    - time: 0
      value: {fileID: -6202454919972933791, guid: 3accdbde4e56f5c4e9cfa311b8cef55f, type: 3}
    - time: 0.1
      value: {fileID: -1306023488744233559, guid: 3accdbde4e56f5c4e9cfa311b8cef55f, type: 3}
    - time: 0.18333334
      value: {fileID: 6753789944390083632, guid: 3accdbde4e56f5c4e9cfa311b8cef55f, type: 3}
    - time: 0.28333333
      value: {fileID: -5291440411977846726, guid: 3accdbde4e56f5c4e9cfa311b8cef55f, type: 3}
    - time: 0.38333333
      value: {fileID: 5173469159935111762, guid: 3accdbde4e56f5c4e9cfa311b8cef55f, type: 3}
    - time: 0.48333332
      value: {fileID: -2749051431520427751, guid: 3accdbde4e56f5c4e9cfa311b8cef55f, type: 3}
    - time: 0.56666666
      value: {fileID: -1663813028376188481, guid: 3accdbde4e56f5c4e9cfa311b8cef55f, type: 3}
    - time: 0.6666667
      value: {fileID: -4746090456694959965, guid: 3accdbde4e56f5c4e9cfa311b8cef55f, type: 3}
    attribute: m_Sprite
    path: 
    classID: 212
    script: {fileID: 0}
  m_SampleRate: 60
  m_WrapMode: 0
  m_Bounds:
    m_Center: {x: 0, y: 0, z: 0}
    m_Extent: {x: 0, y: 0, z: 0}
  m_ClipBindingConstant:
    genericBindings:
    - serializedVersion: 2
      path: 0
      attribute: 0
      script: {fileID: 0}
      typeID: 212
      customType: 23
      isPPtrCurve: 1
    pptrCurveMapping:
    - {fileID: -6202454919972933791, guid: 3accdbde4e56f5c4e9cfa311b8cef55f, type: 3}
    - {fileID: -1306023488744233559, guid: 3accdbde4e56f5c4e9cfa311b8cef55f, type: 3}
    - {fileID: 6753789944390083632, guid: 3accdbde4e56f5c4e9cfa311b8cef55f, type: 3}
    - {fileID: -5291440411977846726, guid: 3accdbde4e56f5c4e9cfa311b8cef55f, type: 3}
    - {fileID: 5173469159935111762, guid: 3accdbde4e56f5c4e9cfa311b8cef55f, type: 3}
    - {fileID: -2749051431520427751, guid: 3accdbde4e56f5c4e9cfa311b8cef55f, type: 3}
    - {fileID: -1663813028376188481, guid: 3accdbde4e56f5c4e9cfa311b8cef55f, type: 3}
    - {fileID: -4746090456694959965, guid: 3accdbde4e56f5c4e9cfa311b8cef55f, type: 3}
  m_AnimationClipSettings:
    serializedVersion: 2
    m_AdditiveReferencePoseClip: {fileID: 0}
    m_AdditiveReferencePoseTime: 0
    m_StartTime: 0
    m_StopTime: 0.68333334
    m_OrientationOffsetY: 0
    m_Level: 0
    m_CycleOffset: 0
    m_HasAdditiveReferencePose: 0
    m_LoopTime: 1
    m_LoopBlend: 0
    m_LoopBlendOrientation: 0
    m_LoopBlendPositionY: 0
    m_LoopBlendPositionXZ: 0
    m_KeepOriginalOrientation: 0
    m_KeepOriginalPositionY: 1
    m_KeepOriginalPositionXZ: 0
    m_HeightFromFeet: 0
    m_Mirror: 0
  m_EditorCurves: []
  m_EulerEditorCurves: []
  m_HasGenericRootTransform: 0
  m_HasMotionFloatCurves: 0
  m_Events: []
